{
         "file_summary": "This file contains a class to parse content from various sources into items with content, metadata and URL. It splits content into chunks that are within the maximum and minimum character limits.",
         "language": "Ruby",
         "library_imports": ["Gitlab::Loggable", "YAML"], 
         "file_imports": [],
         "public_exports": ["Gitlab::Llm::ContentParser"],
         "functions": [
          {
              "function_name":"parse_and_split",
              "function_description":"Parses content into items with content, metadata and URL. Splits content into chunks within character limits.",
              "function_parameters": [
                  {
                      "name":"content",
                      "description":"The content to parse",
                      "parameter_type":"String"
                  },
                  {
                      "name":"source_name",
                      "description":"The name of the content source",
                      "parameter_type":"String"
                  },
                  {
                      "name":"source_type",
                      "description":"The type of the content source",
                      "parameter_type":"String"
                  }
              ]
          },
          {
              "function_name":"parse_content_and_metadata",
              "function_description":"Parses content and extracts metadata. Returns content, metadata and URL.",
              "function_parameters": [
                  {
                      "name":"content",
                      "description":"The content to parse",
                      "parameter_type":"String"
                  },
                  {
                      "name":"source_name",
                      "description":"The name of the content source",
                      "parameter_type":"String"
                  },
                  {
                      "name":"source_type",
                      "description":"The type of the content source",
                      "parameter_type":"String"
                  }
              ]
          },
          {
              "function_name":"split_by_newline_positions",
              "function_description":"Splits content into chunks by newline positions within character limits.",
              "function_parameters": [
                  {
                      "name":"content",
                      "description":"The content to split",
                      "parameter_type":"String"
                  }
              ]
          },
          {
              "function_name":"url",
              "function_description":"Returns the URL for a doc source.",
              "function_parameters": [
                  {
                      "name":"source_name",
                      "description":"The name of the doc source",
                      "parameter_type":"String"
                  },
                  {
                      "name":"source_type",
                      "description":"The type of the source",
                      "parameter_type":"String"
                  }
              ]
          },
          {
              "function_name":"title",
              "function_description":"Extracts the title from content.",
              "function_parameters": [
                  {
                      "name":"content",
                      "description":"The content to extract the title from",
                      "parameter_type":"String"
                  }
              ]
          }
        ]
}